module ccx

go 1.17

require (
	github.com/gorilla/mux v1.8.0
	github.com/joho/godotenv v1.4.0
	github.com/spf13/cobra v1.4.0
)

require (
	github.com/inconshreveable/mousetrap v1.0.0 // indirect
	github.com/spf13/pflag v1.0.5 // indirect
)
